{
    "GottaGoFast": {
        "checkpoints": [
            {
                "steps": 500539,
                "file_path": "results\\GGF5\\GottaGoFast\\GottaGoFast-500539.onnx",
                "reward": null,
                "creation_time": 1616465435.5348296
            },
            {
                "steps": 500539,
                "file_path": "results\\GGF5\\GottaGoFast\\GottaGoFast-500539.onnx",
                "reward": null,
                "creation_time": 1616465490.1571019
            },
            {
                "steps": 678105,
                "file_path": "results\\GGF5\\GottaGoFast\\GottaGoFast-678105.onnx",
                "reward": null,
                "creation_time": 1616466091.9434466
            },
            {
                "steps": 999943,
                "file_path": "results\\GGF5\\GottaGoFast\\GottaGoFast-999943.onnx",
                "reward": -2.5399999976158143,
                "creation_time": 1616467051.6134233
            },
            {
                "steps": 1005730,
                "file_path": "results\\GGF5\\GottaGoFast\\GottaGoFast-1005730.onnx",
                "reward": null,
                "creation_time": 1616467078.4649398
            }
        ],
        "final_checkpoint": {
            "steps": 1005730,
            "file_path": "results\\GGF5\\GottaGoFast.onnx",
            "reward": null,
            "creation_time": 1616467078.4649398
        }
    },
    "metadata": {
        "stats_format_version": "0.2.0",
        "mlagents_version": "0.25.0",
        "torch_version": "1.8.0+cpu"
    }
}