{
    "name": "root",
    "gauges": {
        "GottaGoFast.Policy.Entropy.mean": {
            "value": 0.8714783787727356,
            "min": 0.8714783787727356,
            "max": 1.6589423418045044,
            "count": 9
        },
        "GottaGoFast.Policy.Entropy.sum": {
            "value": 8540.48828125,
            "min": 8540.48828125,
            "max": 17476.95703125,
            "count": 9
        },
        "GottaGoFast.Environment.EpisodeLength.mean": {
            "value": 43.445454545454545,
            "min": 38.37358490566038,
            "max": 50.609375,
            "count": 9
        },
        "GottaGoFast.Environment.EpisodeLength.sum": {
            "value": 9558.0,
            "min": 9558.0,
            "max": 10198.0,
            "count": 9
        },
        "GottaGoFast.Policy.ExtrinsicValueEstimate.mean": {
            "value": 2.304332733154297,
            "min": 0.0010317363776266575,
            "max": 2.321458101272583,
            "count": 9
        },
        "GottaGoFast.Policy.ExtrinsicValueEstimate.sum": {
            "value": 516.1705322265625,
            "min": 0.2826957702636719,
            "max": 516.1705322265625,
            "count": 9
        },
        "GottaGoFast.Environment.CumulativeReward.mean": {
            "value": 3.252232142857143,
            "min": 0.1450980392156863,
            "max": 3.252232142857143,
            "count": 9
        },
        "GottaGoFast.Environment.CumulativeReward.sum": {
            "value": 728.5,
            "min": 37.0,
            "max": 728.5,
            "count": 9
        },
        "GottaGoFast.Policy.ExtrinsicReward.mean": {
            "value": 3.252232142857143,
            "min": 0.1450980392156863,
            "max": 3.252232142857143,
            "count": 9
        },
        "GottaGoFast.Policy.ExtrinsicReward.sum": {
            "value": 728.5,
            "min": 37.0,
            "max": 728.5,
            "count": 9
        },
        "GottaGoFast.Losses.PolicyLoss.mean": {
            "value": 0.24782329176047815,
            "min": 0.24254050707040167,
            "max": 0.2603757538559216,
            "count": 9
        },
        "GottaGoFast.Losses.PolicyLoss.sum": {
            "value": 2.7260562093652596,
            "min": 2.486341617162894,
            "max": 6.6186043635977105,
            "count": 9
        },
        "GottaGoFast.Losses.ValueLoss.mean": {
            "value": 0.14105402966779432,
            "min": 0.14105402966779432,
            "max": 1.0171650242590766,
            "count": 9
        },
        "GottaGoFast.Losses.ValueLoss.sum": {
            "value": 1.5515943263457375,
            "min": 1.5515943263457375,
            "max": 16.128142605190455,
            "count": 9
        },
        "GottaGoFast.Policy.LearningRate.mean": {
            "value": 0.0002490102169966,
            "min": 0.0002490102169966,
            "max": 0.0002981336083144384,
            "count": 9
        },
        "GottaGoFast.Policy.LearningRate.sum": {
            "value": 0.0027391123869626,
            "min": 0.0027275580908139993,
            "max": 0.007751473816175398,
            "count": 9
        },
        "GottaGoFast.Policy.Epsilon.mean": {
            "value": 0.1830034,
            "min": 0.1830034,
            "max": 0.19937786923076925,
            "count": 9
        },
        "GottaGoFast.Policy.Epsilon.sum": {
            "value": 2.0130374,
            "min": 1.9091860000000003,
            "max": 5.1838246,
            "count": 9
        },
        "GottaGoFast.Policy.Beta.mean": {
            "value": 0.00041671666000000005,
            "min": 0.00041671666000000005,
            "max": 0.0004969515592307693,
            "count": 9
        },
        "GottaGoFast.Policy.Beta.sum": {
            "value": 0.00458388326,
            "min": 0.0045550114,
            "max": 0.01292074054,
            "count": 9
        },
        "GottaGoFast.IsTraining.mean": {
            "value": 1.0,
            "min": 1.0,
            "max": 1.0,
            "count": 9
        },
        "GottaGoFast.IsTraining.sum": {
            "value": 1.0,
            "min": 1.0,
            "max": 1.0,
            "count": 9
        }
    },
    "metadata": {
        "timer_format_version": "0.1.0",
        "start_time_seconds": "1616457901",
        "python_version": "3.9.2 (tags/v3.9.2:1a79785, Feb 19 2021, 13:44:55) [MSC v.1928 64 bit (AMD64)]",
        "command_line_arguments": "C:\\Users\\Lucas\\AppData\\Local\\Programs\\Python\\Python39\\Scripts\\mlagents-learn config\\baseMLConfig.yaml --run-id=GGF2 --force",
        "mlagents_version": "0.25.0",
        "mlagents_envs_version": "0.25.0",
        "communication_protocol_version": "1.5.0",
        "pytorch_version": "1.8.0+cpu",
        "numpy_version": "1.20.1",
        "end_time_seconds": "1616458315"
    },
    "total": 414.6082654,
    "count": 1,
    "self": 0.006392000000005282,
    "children": {
        "run_training.setup": {
            "total": 0.13410870000000008,
            "count": 1,
            "self": 0.13410870000000008
        },
        "TrainerController.start_learning": {
            "total": 414.4677647,
            "count": 1,
            "self": 1.8201472000017134,
            "children": {
                "TrainerController._reset_env": {
                    "total": 4.4013328000000005,
                    "count": 1,
                    "self": 4.4013328000000005
                },
                "TrainerController.advance": {
                    "total": 408.06667169999827,
                    "count": 21492,
                    "self": 0.36584939999994504,
                    "children": {
                        "env_step": {
                            "total": 407.7008222999983,
                            "count": 21492,
                            "self": 350.91469059999605,
                            "children": {
                                "SubprocessEnvManager._take_step": {
                                    "total": 56.40799870000208,
                                    "count": 21492,
                                    "self": 1.672791299998302,
                                    "children": {
                                        "TorchPolicy.evaluate": {
                                            "total": 54.73520740000378,
                                            "count": 19827,
                                            "self": 11.501191600006592,
                                            "children": {
                                                "TorchPolicy.sample_actions": {
                                                    "total": 43.23401579999719,
                                                    "count": 19827,
                                                    "self": 43.23401579999719
                                                }
                                            }
                                        }
                                    }
                                },
                                "workers": {
                                    "total": 0.378133000000175,
                                    "count": 21491,
                                    "self": 0.0,
                                    "children": {
                                        "worker_root": {
                                            "total": 408.0120683999981,
                                            "count": 21491,
                                            "is_parallel": true,
                                            "self": 163.8944258000041,
                                            "children": {
                                                "steps_from_proto": {
                                                    "total": 0.0005935999999993058,
                                                    "count": 1,
                                                    "is_parallel": true,
                                                    "self": 0.0002928999999998183,
                                                    "children": {
                                                        "_process_rank_one_or_two_observation": {
                                                            "total": 0.0003006999999994875,
                                                            "count": 4,
                                                            "is_parallel": true,
                                                            "self": 0.0003006999999994875
                                                        }
                                                    }
                                                },
                                                "UnityEnvironment.step": {
                                                    "total": 244.117048999994,
                                                    "count": 21491,
                                                    "is_parallel": true,
                                                    "self": 2.177749299994616,
                                                    "children": {
                                                        "UnityEnvironment._generate_step_input": {
                                                            "total": 7.495941599997205,
                                                            "count": 21491,
                                                            "is_parallel": true,
                                                            "self": 7.495941599997205
                                                        },
                                                        "communicator.exchange": {
                                                            "total": 224.93933989999877,
                                                            "count": 21491,
                                                            "is_parallel": true,
                                                            "self": 224.93933989999877
                                                        },
                                                        "steps_from_proto": {
                                                            "total": 9.50401820000344,
                                                            "count": 21491,
                                                            "is_parallel": true,
                                                            "self": 5.075483000004718,
                                                            "children": {
                                                                "_process_rank_one_or_two_observation": {
                                                                    "total": 4.428535199998722,
                                                                    "count": 85964,
                                                                    "is_parallel": true,
                                                                    "self": 4.428535199998722
                                                                }
                                                            }
                                                        }
                                                    }
                                                }
                                            }
                                        }
                                    }
                                }
                            }
                        }
                    }
                },
                "trainer_threads": {
                    "total": 3.830000002835732e-05,
                    "count": 1,
                    "self": 3.830000002835732e-05,
                    "children": {
                        "thread_root": {
                            "total": 0.0,
                            "count": 0,
                            "is_parallel": true,
                            "self": 0.0,
                            "children": {
                                "trainer_advance": {
                                    "total": 408.01427319999993,
                                    "count": 231,
                                    "is_parallel": true,
                                    "self": 0.0,
                                    "children": {
                                        "process_trajectory": {
                                            "total": 18.514358099999992,
                                            "count": 232,
                                            "is_parallel": true,
                                            "self": 18.514358099999992
                                        },
                                        "_update_policy": {
                                            "total": 389.5878109,
                                            "count": 121,
                                            "is_parallel": true,
                                            "self": 22.92808070000285,
                                            "children": {
                                                "TorchPPOOptimizer.update": {
                                                    "total": 366.65973019999717,
                                                    "count": 29407,
                                                    "is_parallel": true,
                                                    "self": 366.65973019999717
                                                }
                                            }
                                        }
                                    }
                                }
                            }
                        }
                    }
                },
                "TrainerController._save_models": {
                    "total": 0.1795746999999892,
                    "count": 1,
                    "self": 0.01858559999999443,
                    "children": {
                        "RLTrainer._checkpoint": {
                            "total": 0.16098909999999478,
                            "count": 1,
                            "self": 0.16098909999999478
                        }
                    }
                }
            }
        }
    }
}