{
    "name": "root",
    "metadata": {
        "timer_format_version": "0.1.0",
        "start_time_seconds": "1616428294",
        "python_version": "3.9.2 (tags/v3.9.2:1a79785, Feb 19 2021, 13:44:55) [MSC v.1928 64 bit (AMD64)]",
        "command_line_arguments": "C:\\Users\\Lucas\\AppData\\Local\\Programs\\Python\\Python39\\Scripts\\mlagents-learn config\\baseMLConfig.yaml --run-id=GottaGoFast1 --resume",
        "mlagents_version": "0.25.0",
        "mlagents_envs_version": "0.25.0",
        "communication_protocol_version": "1.5.0",
        "pytorch_version": "1.8.0+cpu",
        "numpy_version": "1.20.1",
        "end_time_seconds": "1616428329"
    },
    "total": 35.1898809,
    "count": 1,
    "self": 0.00602649999999727,
    "children": {
        "run_training.setup": {
            "total": 0.11720839999999999,
            "count": 1,
            "self": 0.11720839999999999
        },
        "TrainerController.start_learning": {
            "total": 35.066646,
            "count": 1,
            "self": 0.02313159999995662,
            "children": {
                "TrainerController._reset_env": {
                    "total": 9.6791304,
                    "count": 1,
                    "self": 9.6791304
                },
                "TrainerController.advance": {
                    "total": 25.203137600000048,
                    "count": 825,
                    "self": 0.01146210000002057,
                    "children": {
                        "env_step": {
                            "total": 25.191675500000027,
                            "count": 825,
                            "self": 24.13073499999995,
                            "children": {
                                "SubprocessEnvManager._take_step": {
                                    "total": 1.050763500000052,
                                    "count": 825,
                                    "self": 0.04231010000008695,
                                    "children": {
                                        "TorchPolicy.evaluate": {
                                            "total": 1.008453399999965,
                                            "count": 741,
                                            "self": 0.222730099999902,
                                            "children": {
                                                "TorchPolicy.sample_actions": {
                                                    "total": 0.785723300000063,
                                                    "count": 741,
                                                    "self": 0.785723300000063
                                                }
                                            }
                                        }
                                    }
                                },
                                "workers": {
                                    "total": 0.010177000000021863,
                                    "count": 824,
                                    "self": 0.0,
                                    "children": {
                                        "worker_root": {
                                            "total": 25.19900529999999,
                                            "count": 824,
                                            "is_parallel": true,
                                            "self": 2.039940799999929,
                                            "children": {
                                                "steps_from_proto": {
                                                    "total": 0.0007391000000005477,
                                                    "count": 1,
                                                    "is_parallel": true,
                                                    "self": 0.0003313000000009225,
                                                    "children": {
                                                        "_process_rank_one_or_two_observation": {
                                                            "total": 0.00040779999999962513,
                                                            "count": 4,
                                                            "is_parallel": true,
                                                            "self": 0.00040779999999962513
                                                        }
                                                    }
                                                },
                                                "UnityEnvironment.step": {
                                                    "total": 23.15832540000006,
                                                    "count": 824,
                                                    "is_parallel": true,
                                                    "self": 0.0631192000000027,
                                                    "children": {
                                                        "UnityEnvironment._generate_step_input": {
                                                            "total": 0.23426570000005853,
                                                            "count": 824,
                                                            "is_parallel": true,
                                                            "self": 0.23426570000005853
                                                        },
                                                        "communicator.exchange": {
                                                            "total": 22.546461899999933,
                                                            "count": 824,
                                                            "is_parallel": true,
                                                            "self": 22.546461899999933
                                                        },
                                                        "steps_from_proto": {
                                                            "total": 0.314478600000065,
                                                            "count": 824,
                                                            "is_parallel": true,
                                                            "self": 0.1680326000000658,
                                                            "children": {
                                                                "_process_rank_one_or_two_observation": {
                                                                    "total": 0.1464459999999992,
                                                                    "count": 3296,
                                                                    "is_parallel": true,
                                                                    "self": 0.1464459999999992
                                                                }
                                                            }
                                                        }
                                                    }
                                                }
                                            }
                                        }
                                    }
                                }
                            }
                        }
                    }
                },
                "trainer_threads": {
                    "total": 2.870000000143591e-05,
                    "count": 1,
                    "self": 2.870000000143591e-05,
                    "children": {
                        "thread_root": {
                            "total": 0.0,
                            "count": 0,
                            "is_parallel": true,
                            "self": 0.0,
                            "children": {
                                "trainer_advance": {
                                    "total": 25.193288599999956,
                                    "count": 1707,
                                    "is_parallel": true,
                                    "self": 0.08875059999989432,
                                    "children": {
                                        "process_trajectory": {
                                            "total": 25.104538000000062,
                                            "count": 1707,
                                            "is_parallel": true,
                                            "self": 25.104538000000062
                                        }
                                    }
                                }
                            }
                        }
                    }
                },
                "TrainerController._save_models": {
                    "total": 0.16121769999999458,
                    "count": 1,
                    "self": 0.011160599999996634,
                    "children": {
                        "RLTrainer._checkpoint": {
                            "total": 0.15005709999999794,
                            "count": 1,
                            "self": 0.15005709999999794
                        }
                    }
                }
            }
        }
    }
}